// Jest Snapshot v1, https://goo.gl/fbAQLP

exports[`ResourceTiles component renders a footer slot 1`] = `
<div id="tiles-view">
  <!--v-if-->
  <oc-list class="oc-tiles oc-flex"> </oc-list>
  <!--v-if-->
  <div class="oc-tiles-footer">Hello, ResourceTiles footer!</div>
</div>
`;

exports[`ResourceTiles component renders an array of spaces correctly 1`] = `
<div id="tiles-view">
  <!--v-if-->
  <oc-list class="oc-tiles oc-flex">
    <li class="oc-tiles-item has-item-context-menu">
      <resource-tile-stub draggable="false" isextensiondisplayed="true" isresourceselected="false" resource="[object Object]" resourceiconsize="xlarge" resourceroute="[object Object]"></resource-tile-stub>
    </li>
    <li class="oc-tiles-item has-item-context-menu">
      <resource-tile-stub draggable="false" isextensiondisplayed="true" isresourceselected="false" resource="[object Object]" resourceiconsize="xlarge" resourceroute="[object Object]"></resource-tile-stub>
    </li>
    <li aria-hidden="true" class="ghost-tile">
      <div>1</div>
    </li>
    <li aria-hidden="true" class="ghost-tile">
      <div>1</div>
    </li>
    <li aria-hidden="true" class="ghost-tile">
      <div>1</div>
    </li>
    <li aria-hidden="true" class="ghost-tile">
      <div>1</div>
    </li>
    <li aria-hidden="true" class="ghost-tile">
      <div>1</div>
    </li>
  </oc-list>
  <!--v-if-->
  <div class="oc-tiles-footer"></div>
</div>
`;
